Lab2/simulation/qsim/Lab2.msim.vcd
$comment
	File created using the following command:
		vcd file Lab2.msim.vcd -direction
$end
$date
	Tue Jan 23 14:54:54 2018
$end
$version
	ModelSim Version 10.5b
$end
$timescale
	1ps
$end

$scope module krets_12_vhd_vec_tst $end
$var wire 1 ! CO $end
$var wire 1 " DI0 $end
$var wire 1 # DI1 $end
$var wire 1 $ DI2 $end
$var wire 1 % DI3 $end
$var wire 1 & DO0 $end
$var wire 1 ' DO1 $end
$var wire 1 ( DO2 $end
$var wire 1 ) DO3 $end
$var wire 1 * EN1 $end
$var wire 1 + EN2 $end

$scope module i1 $end
$var wire 1 , gnd $end
$var wire 1 - vcc $end
$var wire 1 . unknown $end
$var wire 1 / devoe $end
$var wire 1 0 devclrn $end
$var wire 1 1 devpor $end
$var wire 1 2 ww_devoe $end
$var wire 1 3 ww_devclrn $end
$var wire 1 4 ww_devpor $end
$var wire 1 5 ww_EN2 $end
$var wire 1 6 ww_EN1 $end
$var wire 1 7 ww_DI3 $end
$var wire 1 8 ww_DI2 $end
$var wire 1 9 ww_DI1 $end
$var wire 1 : ww_DI0 $end
$var wire 1 ; ww_CO $end
$var wire 1 < ww_DO3 $end
$var wire 1 = ww_DO2 $end
$var wire 1 > ww_DO1 $end
$var wire 1 ? ww_DO0 $end
$var wire 1 @ \CO~output_o\ $end
$var wire 1 A \DO3~output_o\ $end
$var wire 1 B \DO2~output_o\ $end
$var wire 1 C \DO1~output_o\ $end
$var wire 1 D \DO0~output_o\ $end
$var wire 1 E \EN1~input_o\ $end
$var wire 1 F \DI2~input_o\ $end
$var wire 1 G \DI3~input_o\ $end
$var wire 1 H \DI0~input_o\ $end
$var wire 1 I \DI1~input_o\ $end
$var wire 1 J \EN2~input_o\ $end
$var wire 1 K \add1|co~combout\ $end
$var wire 1 L \add3|co~combout\ $end
$var wire 1 M \add3|res~combout\ $end
$var wire 1 N \add2|res~combout\ $end
$var wire 1 O \add1|res~combout\ $end
$var wire 1 P \add0|res~combout\ $end
$upscope $end
$upscope $end
$enddefinitions $end
#0
$dumpvars
0!
0"
0#
0$
0%
0&
0'
0(
0)
0*
0+
0,
1-
x.
1/
10
11
12
13
14
05
06
07
08
09
0:
0;
0<
0=
0>
0?
0@
0A
0B
0C
0D
xE
xF
xG
xH
xI
xJ
xK
xL
xM
xN
xO
xP
$end
#746
0E
0F
#776
0G
0J
#786
0H
0I
#3246
xC
x>
x'
#3404
xB
x=
x(
#3485
xD
x?
x&
#3577
xA
x<
x)
#3586
x@
x;
x!
#4241
0P
0O
0K
#4353
0L
#4508
0M
#4630
0N
#7453
0C
0>
0'
#7686
0D
0?
0&
#7900
0@
0;
0!
#7976
0B
0=
0(
#8047
0A
0<
0)
#100000
1*
1+
1%
1"
16
15
17
1:
#100640
1E
#100670
1G
1J
#100680
1H
#103900
1P
1O
#103923
1M
#103939
1N
#103989
0M
#107146
1C
1>
1'
#107343
1B
1=
1(
#107385
1D
1?
1&
#107500
1A
1<
1)
#107528
0A
0<
0)
#1600000
0%
0"
07
0:
#1600776
0G
#1600786
0H
#1604251
0O
#1604253
1K
#1604306
0P
#1604360
1M
#1604613
0N
#1604614
0M
#1604630
1L
#1607463
0C
0>
0'
#1607751
0D
0?
0&
#1607937
1A
1<
1)
#1607959
0B
0=
0(
#1608153
0A
0<
0)
#1608216
1@
1;
1!
#2000000
0*
0+
06
05
#2000746
0E
#2000776
0J
#2004241
0K
#2004267
0L
#2004320
1N
#2004630
0N
#2007724
1B
1=
1(
#2007814
0@
0;
0!
#2007976
0B
0=
0(
